…
count: false

.panel1-RTC-auto[

Bonds   #<<

]

.panel2-RTC-auto[

## # A tibble: 184 x 9
##    `Fund Number` Type  Assets Fees  `Expense Ratio` `Return 2009`
##    <chr>         <chr>  <dbl> <chr>           <dbl>         <dbl>
##  1 FN-1          Inte…  7268. No               0.45           6.9
##  2 FN-2          Inte…   475. No               0.5            9.8
##  3 FN-3          Inte…   193  No               0.71           6.3
##  4 FN-4          Inte… 18604. No               0.13           5.4
##  5 FN-5          Inte…   143. No               0.6            5.9
##  6 FN-6          Inte…  1402. No               0.54           5.7
##  7 FN-7          Inte…   986. No               0.49           3  
##  8 FN-8          Inte…  2189. No               0.55           7.4
##  9 FN-9          Inte…   391. No               0.67           5.3
## 10 FN-10         Inte…   544. No               0.63           5.7
## # … with 174 more rows, and 3 more variables: `3-Year Return` <dbl>, `5-Year
## #   Return` <dbl>, Risk <chr>
…
